%YAML 1.1
%TAG !u! tag:unity3d.com,2011:
--- !u!114 &11400000
MonoBehaviour:
  m_ObjectHideFlags: 0
  m_CorrespondingSourceObject: {fileID: 0}
  m_PrefabInstance: {fileID: 0}
  m_PrefabAsset: {fileID: 0}
  m_GameObject: {fileID: 0}
  m_Enabled: 1
  m_EditorHideFlags: 0
  m_Script: {fileID: 11500000, guid: 9938e02597404e54f8bd7d20d972854e, type: 3}
  m_Name: Area1 Sound Map
  m_EditorClassIdentifier: 
  soundType: 5
  path: SoundData/Music/Area1
  SoundMappingList:
  - name: MUSIC_AREA_1
    Id: 161
    Data: {fileID: 11400000, guid: d4ce60c045f170a4c827491de1cdde91, type: 2}
  - name: MUSIC_LAKE_BEGIN
    Id: 162
    Data: {fileID: 11400000, guid: 4ed3053efc2b585408b29417554420e8, type: 2}
  - name: MUSIC_LAKE
    Id: 163
    Data: {fileID: 11400000, guid: 56f7616684a36bf49a1e6e4fec19954c, type: 2}
  - name: MUSIC_BONUS_1
    Id: 164
    Data: {fileID: 11400000, guid: 17892a236b9a54b449223497d0f13b69, type: 2}
  - name: MUSIC_BOSS_1_BEGIN
    Id: 165
    Data: {fileID: 11400000, guid: e4deec57514c040478408115bb8324f3, type: 2}
  - name: MUSIC_BOSS_1
    Id: 166
    Data: {fileID: 11400000, guid: 46daed9514a024846bfe8f0e334171cc, type: 2}
  - name: MUSIC_MINIBOSS_BEGIN
    Id: 251
    Data: {fileID: 11400000, guid: 902d34a9ba9a96148904ece9c4ed6c59, type: 2}
  - name: MUSIC_MINIBOSS
    Id: 252
    Data: {fileID: 11400000, guid: ae5f9ee5a7b2d5a4b913c9b11e52d13c, type: 2}
  - name: MUSIC_DUNGEON_BEGIN
    Id: 255
    Data: {fileID: 11400000, guid: abb1e64e4979d0645a3eef018aa9bdc2, type: 2}
  - name: MUSIC_DUNGEON
    Id: 256
    Data: {fileID: 11400000, guid: 041fc3a9df2d340449ac37ee41ea71dd, type: 2}
  - name: MUSIC_SCARY_STORY
    Id: 257
    Data: {fileID: 11400000, guid: a7250faa9d3a0d44993d848a9d91c5aa, type: 2}
  - name: MUSIC_HAPPY
    Id: 258
    Data: {fileID: 11400000, guid: 85b062a20c1aac94da4020b053a508c3, type: 2}
