%YAML 1.1
%TAG !u! tag:unity3d.com,2011:
--- !u!74 &7400000
AnimationClip:
  m_ObjectHideFlags: 0
  m_CorrespondingSourceObject: {fileID: 0}
  m_PrefabInstance: {fileID: 0}
  m_PrefabAsset: {fileID: 0}
  m_Name: waterSplash
  serializedVersion: 6
  m_Legacy: 0
  m_Compressed: 0
  m_UseHighQualityCurve: 1
  m_RotationCurves: []
  m_CompressedRotationCurves: []
  m_EulerCurves: []
  m_PositionCurves: []
  m_ScaleCurves: []
  m_FloatCurves: []
  m_PPtrCurves:
  - curve:
    - time: 0
      value: {fileID: -191182631, guid: 4a9f6dec4e4460a48b8991eb351d35a5, type: 3}
    - time: 0.06666667
      value: {fileID: 622187138, guid: 4a9f6dec4e4460a48b8991eb351d35a5, type: 3}
    - time: 0.15
      value: {fileID: -1622296040, guid: 4a9f6dec4e4460a48b8991eb351d35a5, type: 3}
    - time: 0.23333333
      value: {fileID: -1257174662, guid: 4a9f6dec4e4460a48b8991eb351d35a5, type: 3}
    - time: 0.3
      value: {fileID: 251774476, guid: 4a9f6dec4e4460a48b8991eb351d35a5, type: 3}
    - time: 0.36666667
      value: {fileID: -696108125, guid: 4a9f6dec4e4460a48b8991eb351d35a5, type: 3}
    - time: 0.45
      value: {fileID: -1222131273, guid: 4a9f6dec4e4460a48b8991eb351d35a5, type: 3}
    - time: 0.51666665
      value: {fileID: 604141101, guid: 4a9f6dec4e4460a48b8991eb351d35a5, type: 3}
    - time: 0.6
      value: {fileID: -1207796828, guid: 4a9f6dec4e4460a48b8991eb351d35a5, type: 3}
    - time: 0.6666667
      value: {fileID: 1331073241, guid: 4a9f6dec4e4460a48b8991eb351d35a5, type: 3}
    - time: 0.75
      value: {fileID: 1331073241, guid: 4a9f6dec4e4460a48b8991eb351d35a5, type: 3}
    attribute: m_Sprite
    path: 
    classID: 212
    script: {fileID: 0}
  m_SampleRate: 60
  m_WrapMode: 0
  m_Bounds:
    m_Center: {x: 0, y: 0, z: 0}
    m_Extent: {x: 0, y: 0, z: 0}
  m_ClipBindingConstant:
    genericBindings:
    - serializedVersion: 2
      path: 0
      attribute: 0
      script: {fileID: 0}
      typeID: 212
      customType: 23
      isPPtrCurve: 1
    pptrCurveMapping:
    - {fileID: -191182631, guid: 4a9f6dec4e4460a48b8991eb351d35a5, type: 3}
    - {fileID: 622187138, guid: 4a9f6dec4e4460a48b8991eb351d35a5, type: 3}
    - {fileID: -1622296040, guid: 4a9f6dec4e4460a48b8991eb351d35a5, type: 3}
    - {fileID: -1257174662, guid: 4a9f6dec4e4460a48b8991eb351d35a5, type: 3}
    - {fileID: 251774476, guid: 4a9f6dec4e4460a48b8991eb351d35a5, type: 3}
    - {fileID: -696108125, guid: 4a9f6dec4e4460a48b8991eb351d35a5, type: 3}
    - {fileID: -1222131273, guid: 4a9f6dec4e4460a48b8991eb351d35a5, type: 3}
    - {fileID: 604141101, guid: 4a9f6dec4e4460a48b8991eb351d35a5, type: 3}
    - {fileID: -1207796828, guid: 4a9f6dec4e4460a48b8991eb351d35a5, type: 3}
    - {fileID: 1331073241, guid: 4a9f6dec4e4460a48b8991eb351d35a5, type: 3}
    - {fileID: 1331073241, guid: 4a9f6dec4e4460a48b8991eb351d35a5, type: 3}
  m_AnimationClipSettings:
    serializedVersion: 2
    m_AdditiveReferencePoseClip: {fileID: 0}
    m_AdditiveReferencePoseTime: 0
    m_StartTime: 0
    m_StopTime: 0.76666665
    m_OrientationOffsetY: 0
    m_Level: 0
    m_CycleOffset: 0
    m_HasAdditiveReferencePose: 0
    m_LoopTime: 0
    m_LoopBlend: 0
    m_LoopBlendOrientation: 0
    m_LoopBlendPositionY: 0
    m_LoopBlendPositionXZ: 0
    m_KeepOriginalOrientation: 0
    m_KeepOriginalPositionY: 1
    m_KeepOriginalPositionXZ: 0
    m_HeightFromFeet: 0
    m_Mirror: 0
  m_EditorCurves: []
  m_EulerEditorCurves: []
  m_HasGenericRootTransform: 0
  m_HasMotionFloatCurves: 0
  m_Events: []
