%YAML 1.1
%TAG !u! tag:unity3d.com,2011:
--- !u!114 &11400000
MonoBehaviour:
  m_ObjectHideFlags: 0
  m_CorrespondingSourceObject: {fileID: 0}
  m_PrefabInstance: {fileID: 0}
  m_PrefabAsset: {fileID: 0}
  m_GameObject: {fileID: 0}
  m_Enabled: 1
  m_EditorHideFlags: 0
  m_Script: {fileID: 11500000, guid: c9b8a7b6adc10cc4bbfa3402a740dbfb, type: 3}
  m_Name: Bow2
  m_EditorClassIdentifier: 
  itemType: 20
  weaponType: 1
  EquipmentType: 3
  sprite: {fileID: 1552007703, guid: 861136e20038850448228b876f7786cd, type: 3}
  itemName: "Cung t\xEAn 2"
  detail: "Cung t\xEAn y\u1EBFu h\u01A1n"
  ID: w002
  cost: 50
  Attack: 5
  Defense: 25
  Speed: 5
  Stamina: 7
  HealthIncrease: 0
  StaminaIncrease: 0
