%YAML 1.1
%TAG !u! tag:unity3d.com,2011:
--- !u!114 &11400000
MonoBehaviour:
  m_ObjectHideFlags: 0
  m_CorrespondingSourceObject: {fileID: 0}
  m_PrefabInstance: {fileID: 0}
  m_PrefabAsset: {fileID: 0}
  m_GameObject: {fileID: 0}
  m_Enabled: 1
  m_EditorHideFlags: 0
  m_Script: {fileID: 11500000, guid: 2e50a2b6ba850444aae74df0105f8314, type: 3}
  m_Name: RedFoley
  m_EditorClassIdentifier: 
  PetType: 2
  Speed: 3
  Cooldown: 3
  HealAmount: 1
  Damage: 0.5
  PetID: 4
  PetInfo: "Foley \u0111\u1ECF, s\u1EB5n s\xE0ng h\u1ED7 tr\u1EE3 t\u1EA5n c\xF4ng
    k\u1EBB \u0111\u1ECBch xung quanh gi\xFAp b\u1EA1n"
