%YAML 1.1
%TAG !u! tag:unity3d.com,2011:
--- !u!114 &11400000
MonoBehaviour:
  m_ObjectHideFlags: 0
  m_CorrespondingSourceObject: {fileID: 0}
  m_PrefabInstance: {fileID: 0}
  m_PrefabAsset: {fileID: 0}
  m_GameObject: {fileID: 0}
  m_Enabled: 1
  m_EditorHideFlags: 0
  m_Script: {fileID: 11500000, guid: ebc66c64f40f099488236794fdd2b3aa, type: 3}
  m_Name: WoodShoe
  m_EditorClassIdentifier: 
  SO_item: {fileID: 11400000, guid: 16a450e74fb07fd4db3aba189387fdd5, type: 2}
  ItemRequires:
  - {fileID: 11400000, guid: a33706b16fddc0c46a34d83d592ad0a1, type: 2}
  - {fileID: 11400000, guid: 8029d4def6a3c8b4da484dc4a02c7f08, type: 2}
  - {fileID: 11400000, guid: 7928031b2a621e64bbe6ce4ecb549699, type: 2}
  numberRequires: 030000000100000002000000
