%YAML 1.1
%TAG !u! tag:unity3d.com,2011:
--- !u!74 &7400000
AnimationClip:
  m_ObjectHideFlags: 0
  m_CorrespondingSourceObject: {fileID: 0}
  m_PrefabInstance: {fileID: 0}
  m_PrefabAsset: {fileID: 0}
  m_Name: fireGlow
  serializedVersion: 6
  m_Legacy: 0
  m_Compressed: 0
  m_UseHighQualityCurve: 1
  m_RotationCurves: []
  m_CompressedRotationCurves: []
  m_EulerCurves: []
  m_PositionCurves: []
  m_ScaleCurves: []
  m_FloatCurves: []
  m_PPtrCurves:
  - curve:
    - time: 0
      value: {fileID: 1707503560, guid: 226321c9ceb699a4aad1d4cc84466af2, type: 3}
    - time: 0.083333336
      value: {fileID: -36548044, guid: 226321c9ceb699a4aad1d4cc84466af2, type: 3}
    - time: 0.15
      value: {fileID: -1927760050, guid: 226321c9ceb699a4aad1d4cc84466af2, type: 3}
    - time: 0.23333333
      value: {fileID: -1108249229, guid: 226321c9ceb699a4aad1d4cc84466af2, type: 3}
    - time: 0.3
      value: {fileID: 1490854179, guid: 226321c9ceb699a4aad1d4cc84466af2, type: 3}
    - time: 0.38333333
      value: {fileID: 2098451143, guid: 226321c9ceb699a4aad1d4cc84466af2, type: 3}
    - time: 0.46666667
      value: {fileID: -288983495, guid: 226321c9ceb699a4aad1d4cc84466af2, type: 3}
    - time: 0.53333336
      value: {fileID: 89999752, guid: 226321c9ceb699a4aad1d4cc84466af2, type: 3}
    - time: 0.6166667
      value: {fileID: -918034232, guid: 226321c9ceb699a4aad1d4cc84466af2, type: 3}
    - time: 0.7
      value: {fileID: -688954713, guid: 226321c9ceb699a4aad1d4cc84466af2, type: 3}
    - time: 0.76666665
      value: {fileID: -1900074864, guid: 226321c9ceb699a4aad1d4cc84466af2, type: 3}
    - time: 0.85
      value: {fileID: 1303298147, guid: 226321c9ceb699a4aad1d4cc84466af2, type: 3}
    - time: 0.9166667
      value: {fileID: -1326132241, guid: 226321c9ceb699a4aad1d4cc84466af2, type: 3}
    - time: 1
      value: {fileID: 1707503560, guid: 226321c9ceb699a4aad1d4cc84466af2, type: 3}
    attribute: m_Sprite
    path: 
    classID: 114
    script: {fileID: 11500000, guid: fe87c0e1cc204ed48ad3b37840f39efc, type: 3}
  m_SampleRate: 60
  m_WrapMode: 0
  m_Bounds:
    m_Center: {x: 0, y: 0, z: 0}
    m_Extent: {x: 0, y: 0, z: 0}
  m_ClipBindingConstant:
    genericBindings:
    - serializedVersion: 2
      path: 0
      attribute: 2015549526
      script: {fileID: 11500000, guid: fe87c0e1cc204ed48ad3b37840f39efc, type: 3}
      typeID: 114
      customType: 0
      isPPtrCurve: 1
    pptrCurveMapping:
    - {fileID: 1707503560, guid: 226321c9ceb699a4aad1d4cc84466af2, type: 3}
    - {fileID: -36548044, guid: 226321c9ceb699a4aad1d4cc84466af2, type: 3}
    - {fileID: -1927760050, guid: 226321c9ceb699a4aad1d4cc84466af2, type: 3}
    - {fileID: -1108249229, guid: 226321c9ceb699a4aad1d4cc84466af2, type: 3}
    - {fileID: 1490854179, guid: 226321c9ceb699a4aad1d4cc84466af2, type: 3}
    - {fileID: 2098451143, guid: 226321c9ceb699a4aad1d4cc84466af2, type: 3}
    - {fileID: -288983495, guid: 226321c9ceb699a4aad1d4cc84466af2, type: 3}
    - {fileID: 89999752, guid: 226321c9ceb699a4aad1d4cc84466af2, type: 3}
    - {fileID: -918034232, guid: 226321c9ceb699a4aad1d4cc84466af2, type: 3}
    - {fileID: -688954713, guid: 226321c9ceb699a4aad1d4cc84466af2, type: 3}
    - {fileID: -1900074864, guid: 226321c9ceb699a4aad1d4cc84466af2, type: 3}
    - {fileID: 1303298147, guid: 226321c9ceb699a4aad1d4cc84466af2, type: 3}
    - {fileID: -1326132241, guid: 226321c9ceb699a4aad1d4cc84466af2, type: 3}
    - {fileID: 1707503560, guid: 226321c9ceb699a4aad1d4cc84466af2, type: 3}
  m_AnimationClipSettings:
    serializedVersion: 2
    m_AdditiveReferencePoseClip: {fileID: 0}
    m_AdditiveReferencePoseTime: 0
    m_StartTime: 0
    m_StopTime: 1.0166667
    m_OrientationOffsetY: 0
    m_Level: 0
    m_CycleOffset: 0
    m_HasAdditiveReferencePose: 0
    m_LoopTime: 1
    m_LoopBlend: 0
    m_LoopBlendOrientation: 0
    m_LoopBlendPositionY: 0
    m_LoopBlendPositionXZ: 0
    m_KeepOriginalOrientation: 0
    m_KeepOriginalPositionY: 1
    m_KeepOriginalPositionXZ: 0
    m_HeightFromFeet: 0
    m_Mirror: 0
  m_EditorCurves: []
  m_EulerEditorCurves: []
  m_HasGenericRootTransform: 0
  m_HasMotionFloatCurves: 0
  m_Events: []
