%YAML 1.1
%TAG !u! tag:unity3d.com,2011:
--- !u!114 &11400000
MonoBehaviour:
  m_ObjectHideFlags: 0
  m_CorrespondingSourceObject: {fileID: 0}
  m_PrefabInstance: {fileID: 0}
  m_PrefabAsset: {fileID: 0}
  m_GameObject: {fileID: 0}
  m_Enabled: 1
  m_EditorHideFlags: 0
  m_Script: {fileID: 11500000, guid: c9b8a7b6adc10cc4bbfa3402a740dbfb, type: 3}
  m_Name: FreezePotion
  m_EditorClassIdentifier: 
  itemType: 30
  weaponType: 0
  EquipmentType: 0
  sprite: {fileID: -2025089330, guid: daf5c428d3ca3ca42bfe5a6f1f841e8f, type: 3}
  itemName: "Thu\u1ED1c tan b\u0103ng"
  detail: "Khi\u1EBFn c\u01A1 th\u1EC3 t\u1ECFa nhi\u1EC7t d\u1EEF d\u1ED9i t\u1EDBi
    m\u1EE9c tan b\u0103ng, c\xF3 hi\u1EC7u l\u1EF1c trong m\u1ED9t kho\u1EA3ng th\u1EDDi
    gian"
  ID: u013
  cost: 200
  Attack: 0
  Defense: 0
  Speed: 0
  Stamina: 0
  HealthIncrease: 0
  StaminaIncrease: 0
