%YAML 1.1
%TAG !u! tag:unity3d.com,2011:
--- !u!114 &11400000
MonoBehaviour:
  m_ObjectHideFlags: 0
  m_CorrespondingSourceObject: {fileID: 0}
  m_PrefabInstance: {fileID: 0}
  m_PrefabAsset: {fileID: 0}
  m_GameObject: {fileID: 0}
  m_Enabled: 1
  m_EditorHideFlags: 0
  m_Script: {fileID: 11500000, guid: c9b8a7b6adc10cc4bbfa3402a740dbfb, type: 3}
  m_Name: FullHealPotion
  m_EditorClassIdentifier: 
  itemType: 30
  weaponType: 0
  EquipmentType: 0
  sprite: {fileID: 1583547767, guid: daf5c428d3ca3ca42bfe5a6f1f841e8f, type: 3}
  itemName: "Thu\u1ED1c c\u1EA7u v\u1ED3ng"
  detail: "Lo\u1EA1i thu\u1ED1c c\xF3 th\u1EC3 ch\u1EEFa v\xE0 kh\xE1ng m\u1ECDi
    hi\u1EC7u \u1EE9ng trong m\u1ED9t kho\u1EA3ng th\u1EDDi gian (tr\u1EEB \u0111au
    l\u01B0ng)"
  ID: u014
  cost: 275
  Attack: 0
  Defense: 0
  Speed: 0
  Stamina: 0
  HealthIncrease: 0
  StaminaIncrease: 0
