%YAML 1.1
%TAG !u! tag:unity3d.com,2011:
--- !u!114 &11400000
MonoBehaviour:
  m_ObjectHideFlags: 0
  m_CorrespondingSourceObject: {fileID: 0}
  m_PrefabInstance: {fileID: 0}
  m_PrefabAsset: {fileID: 0}
  m_GameObject: {fileID: 0}
  m_Enabled: 1
  m_EditorHideFlags: 0
  m_Script: {fileID: 11500000, guid: 9d1514134bc4fbd41bb739b1b9a49231, type: 3}
  m_Name: TreeShadow
  m_EditorClassIdentifier: 
  m_DefaultSprite: {fileID: 670751925, guid: 4abbd9498a3f47e41b46456d11ffe020, type: 3}
  m_DefaultGameObject: {fileID: 0}
  m_DefaultColliderType: 1
  m_TilingRules:
  - m_Id: 0
    m_Sprites:
    - {fileID: 670751925, guid: 4abbd9498a3f47e41b46456d11ffe020, type: 3}
    m_GameObject: {fileID: 0}
    m_MinAnimationSpeed: 1
    m_MaxAnimationSpeed: 1
    m_PerlinScale: 0.5
    m_Output: 0
    m_ColliderType: 1
    m_RandomTransform: 0
    m_Neighbors: 0100000001000000010000000100000001000000010000000100000001000000
    m_NeighborPositions:
    - {x: -1, y: 1, z: 0}
    - {x: 0, y: 1, z: 0}
    - {x: 1, y: 1, z: 0}
    - {x: 1, y: 0, z: 0}
    - {x: 1, y: -1, z: 0}
    - {x: 0, y: -1, z: 0}
    - {x: -1, y: -1, z: 0}
    - {x: -1, y: 0, z: 0}
    m_RuleTransform: 0
  - m_Id: 1
    m_Sprites:
    - {fileID: 704476068, guid: 4abbd9498a3f47e41b46456d11ffe020, type: 3}
    m_GameObject: {fileID: 0}
    m_MinAnimationSpeed: 1
    m_MaxAnimationSpeed: 1
    m_PerlinScale: 0.5
    m_Output: 0
    m_ColliderType: 1
    m_RandomTransform: 0
    m_Neighbors: 010000000100000001000000020000000200000002000000
    m_NeighborPositions:
    - {x: 1, y: 0, z: 0}
    - {x: 1, y: -1, z: 0}
    - {x: 0, y: -1, z: 0}
    - {x: 0, y: 1, z: 0}
    - {x: -1, y: 1, z: 0}
    - {x: -1, y: 0, z: 0}
    m_RuleTransform: 0
  - m_Id: 2
    m_Sprites:
    - {fileID: 2032624262, guid: 4abbd9498a3f47e41b46456d11ffe020, type: 3}
    m_GameObject: {fileID: 0}
    m_MinAnimationSpeed: 1
    m_MaxAnimationSpeed: 1
    m_PerlinScale: 0.5
    m_Output: 0
    m_ColliderType: 1
    m_RandomTransform: 0
    m_Neighbors: 010000000100000001000000020000000200000002000000
    m_NeighborPositions:
    - {x: -1, y: 0, z: 0}
    - {x: -1, y: -1, z: 0}
    - {x: 0, y: -1, z: 0}
    - {x: 1, y: 0, z: 0}
    - {x: 1, y: 1, z: 0}
    - {x: 0, y: 1, z: 0}
    m_RuleTransform: 0
  - m_Id: 3
    m_Sprites:
    - {fileID: 554802915, guid: 4abbd9498a3f47e41b46456d11ffe020, type: 3}
    m_GameObject: {fileID: 0}
    m_MinAnimationSpeed: 1
    m_MaxAnimationSpeed: 1
    m_PerlinScale: 0.5
    m_Output: 0
    m_ColliderType: 1
    m_RandomTransform: 0
    m_Neighbors: 010000000100000001000000020000000200000002000000
    m_NeighborPositions:
    - {x: 0, y: 1, z: 0}
    - {x: 1, y: 1, z: 0}
    - {x: 1, y: 0, z: 0}
    - {x: -1, y: 0, z: 0}
    - {x: -1, y: -1, z: 0}
    - {x: 0, y: -1, z: 0}
    m_RuleTransform: 0
  - m_Id: 4
    m_Sprites:
    - {fileID: 272019963, guid: 4abbd9498a3f47e41b46456d11ffe020, type: 3}
    m_GameObject: {fileID: 0}
    m_MinAnimationSpeed: 1
    m_MaxAnimationSpeed: 1
    m_PerlinScale: 0.5
    m_Output: 0
    m_ColliderType: 1
    m_RandomTransform: 0
    m_Neighbors: 010000000100000001000000020000000200000002000000
    m_NeighborPositions:
    - {x: 0, y: 1, z: 0}
    - {x: -1, y: 1, z: 0}
    - {x: -1, y: 0, z: 0}
    - {x: 1, y: 0, z: 0}
    - {x: 1, y: -1, z: 0}
    - {x: 0, y: -1, z: 0}
    m_RuleTransform: 0
  - m_Id: 5
    m_Sprites:
    - {fileID: -306702129, guid: 4abbd9498a3f47e41b46456d11ffe020, type: 3}
    m_GameObject: {fileID: 0}
    m_MinAnimationSpeed: 1
    m_MaxAnimationSpeed: 1
    m_PerlinScale: 0.5
    m_Output: 0
    m_ColliderType: 1
    m_RandomTransform: 0
    m_Neighbors: 010000000100000001000000010000000100000002000000
    m_NeighborPositions:
    - {x: 0, y: 1, z: 0}
    - {x: 1, y: 0, z: 0}
    - {x: 1, y: 1, z: 0}
    - {x: 0, y: -1, z: 0}
    - {x: 1, y: -1, z: 0}
    - {x: -1, y: 0, z: 0}
    m_RuleTransform: 0
  - m_Id: 6
    m_Sprites:
    - {fileID: -1590581863, guid: 4abbd9498a3f47e41b46456d11ffe020, type: 3}
    m_GameObject: {fileID: 0}
    m_MinAnimationSpeed: 1
    m_MaxAnimationSpeed: 1
    m_PerlinScale: 0.5
    m_Output: 0
    m_ColliderType: 1
    m_RandomTransform: 0
    m_Neighbors: 010000000100000001000000010000000100000002000000
    m_NeighborPositions:
    - {x: 0, y: 1, z: 0}
    - {x: -1, y: 1, z: 0}
    - {x: -1, y: 0, z: 0}
    - {x: -1, y: -1, z: 0}
    - {x: 0, y: -1, z: 0}
    - {x: 1, y: 0, z: 0}
    m_RuleTransform: 0
  - m_Id: 7
    m_Sprites:
    - {fileID: -1911194167, guid: 4abbd9498a3f47e41b46456d11ffe020, type: 3}
    m_GameObject: {fileID: 0}
    m_MinAnimationSpeed: 1
    m_MaxAnimationSpeed: 1
    m_PerlinScale: 0.5
    m_Output: 0
    m_ColliderType: 1
    m_RandomTransform: 0
    m_Neighbors: 010000000100000001000000010000000100000002000000
    m_NeighborPositions:
    - {x: 1, y: 0, z: 0}
    - {x: 1, y: 1, z: 0}
    - {x: 0, y: 1, z: 0}
    - {x: -1, y: 1, z: 0}
    - {x: -1, y: 0, z: 0}
    - {x: 0, y: -1, z: 0}
    m_RuleTransform: 0
  - m_Id: 8
    m_Sprites:
    - {fileID: 2039999838, guid: 4abbd9498a3f47e41b46456d11ffe020, type: 3}
    m_GameObject: {fileID: 0}
    m_MinAnimationSpeed: 1
    m_MaxAnimationSpeed: 1
    m_PerlinScale: 0.5
    m_Output: 0
    m_ColliderType: 1
    m_RandomTransform: 0
    m_Neighbors: 010000000100000001000000010000000100000002000000
    m_NeighborPositions:
    - {x: 1, y: 0, z: 0}
    - {x: 0, y: -1, z: 0}
    - {x: 1, y: -1, z: 0}
    - {x: -1, y: -1, z: 0}
    - {x: -1, y: 0, z: 0}
    - {x: 0, y: 1, z: 0}
    m_RuleTransform: 0
  - m_Id: 9
    m_Sprites:
    - {fileID: 149924490, guid: 4abbd9498a3f47e41b46456d11ffe020, type: 3}
    m_GameObject: {fileID: 0}
    m_MinAnimationSpeed: 1
    m_MaxAnimationSpeed: 1
    m_PerlinScale: 0.5
    m_Output: 0
    m_ColliderType: 1
    m_RandomTransform: 0
    m_Neighbors: 02000000020000000200000002000000
    m_NeighborPositions:
    - {x: 0, y: 1, z: 0}
    - {x: 1, y: 0, z: 0}
    - {x: 0, y: -1, z: 0}
    - {x: -1, y: 0, z: 0}
    m_RuleTransform: 0
  - m_Id: 10
    m_Sprites:
    - {fileID: 2085655458, guid: 4abbd9498a3f47e41b46456d11ffe020, type: 3}
    m_GameObject: {fileID: 0}
    m_MinAnimationSpeed: 1
    m_MaxAnimationSpeed: 1
    m_PerlinScale: 0.5
    m_Output: 0
    m_ColliderType: 1
    m_RandomTransform: 0
    m_Neighbors: 0200000001000000010000000100000001000000010000000100000001000000
    m_NeighborPositions:
    - {x: -1, y: 1, z: 0}
    - {x: 0, y: 1, z: 0}
    - {x: 1, y: 1, z: 0}
    - {x: 1, y: 0, z: 0}
    - {x: 1, y: -1, z: 0}
    - {x: 0, y: -1, z: 0}
    - {x: -1, y: -1, z: 0}
    - {x: -1, y: 0, z: 0}
    m_RuleTransform: 0
  - m_Id: 11
    m_Sprites:
    - {fileID: 315699177, guid: 4abbd9498a3f47e41b46456d11ffe020, type: 3}
    m_GameObject: {fileID: 0}
    m_MinAnimationSpeed: 1
    m_MaxAnimationSpeed: 1
    m_PerlinScale: 0.5
    m_Output: 0
    m_ColliderType: 1
    m_RandomTransform: 0
    m_Neighbors: 0200000001000000010000000100000001000000010000000100000001000000
    m_NeighborPositions:
    - {x: 1, y: 1, z: 0}
    - {x: 0, y: 1, z: 0}
    - {x: -1, y: 1, z: 0}
    - {x: -1, y: 0, z: 0}
    - {x: -1, y: -1, z: 0}
    - {x: 0, y: -1, z: 0}
    - {x: 1, y: -1, z: 0}
    - {x: 1, y: 0, z: 0}
    m_RuleTransform: 0
  - m_Id: 12
    m_Sprites:
    - {fileID: -665881187, guid: 4abbd9498a3f47e41b46456d11ffe020, type: 3}
    m_GameObject: {fileID: 0}
    m_MinAnimationSpeed: 1
    m_MaxAnimationSpeed: 1
    m_PerlinScale: 0.5
    m_Output: 0
    m_ColliderType: 1
    m_RandomTransform: 0
    m_Neighbors: 0200000001000000010000000100000001000000010000000100000001000000
    m_NeighborPositions:
    - {x: -1, y: -1, z: 0}
    - {x: 0, y: -1, z: 0}
    - {x: 1, y: -1, z: 0}
    - {x: 1, y: 0, z: 0}
    - {x: 1, y: 1, z: 0}
    - {x: 0, y: 1, z: 0}
    - {x: -1, y: 1, z: 0}
    - {x: -1, y: 0, z: 0}
    m_RuleTransform: 1
  - m_Id: 13
    m_Sprites:
    - {fileID: -1680363587, guid: 4abbd9498a3f47e41b46456d11ffe020, type: 3}
    m_GameObject: {fileID: 0}
    m_MinAnimationSpeed: 1
    m_MaxAnimationSpeed: 1
    m_PerlinScale: 0.5
    m_Output: 0
    m_ColliderType: 1
    m_RandomTransform: 0
    m_Neighbors: 0200000001000000010000000100000001000000010000000100000001000000
    m_NeighborPositions:
    - {x: 1, y: -1, z: 0}
    - {x: 1, y: 0, z: 0}
    - {x: 1, y: 1, z: 0}
    - {x: 0, y: 1, z: 0}
    - {x: -1, y: 1, z: 0}
    - {x: -1, y: 0, z: 0}
    - {x: -1, y: -1, z: 0}
    - {x: 0, y: -1, z: 0}
    m_RuleTransform: 0
