%YAML 1.1
%TAG !u! tag:unity3d.com,2011:
--- !u!114 &11400000
MonoBehaviour:
  m_ObjectHideFlags: 0
  m_CorrespondingSourceObject: {fileID: 0}
  m_PrefabInstance: {fileID: 0}
  m_PrefabAsset: {fileID: 0}
  m_GameObject: {fileID: 0}
  m_Enabled: 1
  m_EditorHideFlags: 0
  m_Script: {fileID: 11500000, guid: 13b75c95f34a00d4e8c04f76b73312e6, type: 3}
  m_Name: WaterTouchTile 1
  m_EditorClassIdentifier: 
  m_AnimatedSprites:
  - {fileID: 10904855, guid: 3a893a8e282135a479790854e64dfac1, type: 3}
  - {fileID: 10904855, guid: 3a893a8e282135a479790854e64dfac1, type: 3}
  - {fileID: 239669196, guid: 3a893a8e282135a479790854e64dfac1, type: 3}
  - {fileID: 918183856, guid: 3a893a8e282135a479790854e64dfac1, type: 3}
  - {fileID: 956861278, guid: 3a893a8e282135a479790854e64dfac1, type: 3}
  - {fileID: 774303967, guid: 3a893a8e282135a479790854e64dfac1, type: 3}
  - {fileID: 836045867, guid: 3a893a8e282135a479790854e64dfac1, type: 3}
  - {fileID: -110262438, guid: 3a893a8e282135a479790854e64dfac1, type: 3}
  - {fileID: 10904855, guid: 3a893a8e282135a479790854e64dfac1, type: 3}
  - {fileID: 10904855, guid: 3a893a8e282135a479790854e64dfac1, type: 3}
  m_MinSpeed: 6
  m_MaxSpeed: 6
  m_AnimationStartTime: 0
  m_AnimationStartFrame: 0
  m_TileColliderType: 0
