%YAML 1.1
%TAG !u! tag:unity3d.com,2011:
--- !u!114 &11400000
MonoBehaviour:
  m_ObjectHideFlags: 0
  m_CorrespondingSourceObject: {fileID: 0}
  m_PrefabInstance: {fileID: 0}
  m_PrefabAsset: {fileID: 0}
  m_GameObject: {fileID: 0}
  m_Enabled: 1
  m_EditorHideFlags: 0
  m_Script: {fileID: 11500000, guid: 13b75c95f34a00d4e8c04f76b73312e6, type: 3}
  m_Name: WaterRockTile2
  m_EditorClassIdentifier: 
  m_AnimatedSprites:
  - {fileID: -1272392991, guid: 865ddc0fa19c74d4c920dc19ccabedf8, type: 3}
  - {fileID: -1542798970, guid: 865ddc0fa19c74d4c920dc19ccabedf8, type: 3}
  - {fileID: 2125364186, guid: 865ddc0fa19c74d4c920dc19ccabedf8, type: 3}
  - {fileID: -2058900554, guid: 865ddc0fa19c74d4c920dc19ccabedf8, type: 3}
  - {fileID: 2119331154, guid: 865ddc0fa19c74d4c920dc19ccabedf8, type: 3}
  - {fileID: 232245197, guid: 865ddc0fa19c74d4c920dc19ccabedf8, type: 3}
  m_MinSpeed: 8
  m_MaxSpeed: 8
  m_AnimationStartTime: 0
  m_AnimationStartFrame: 0
  m_TileColliderType: 0
