%YAML 1.1
%TAG !u! tag:unity3d.com,2011:
--- !u!74 &7400000
AnimationClip:
  m_ObjectHideFlags: 0
  m_CorrespondingSourceObject: {fileID: 0}
  m_PrefabInstance: {fileID: 0}
  m_PrefabAsset: {fileID: 0}
  m_Name: storyBG
  serializedVersion: 6
  m_Legacy: 0
  m_Compressed: 0
  m_UseHighQualityCurve: 1
  m_RotationCurves: []
  m_CompressedRotationCurves: []
  m_EulerCurves: []
  m_PositionCurves: []
  m_ScaleCurves: []
  m_FloatCurves: []
  m_PPtrCurves:
  - curve:
    - time: 0
      value: {fileID: -1627316853, guid: 649112063908df8498a3b2d3caaaa747, type: 3}
    - time: 0.1
      value: {fileID: 2019604186, guid: 649112063908df8498a3b2d3caaaa747, type: 3}
    - time: 0.18333334
      value: {fileID: -1717563090, guid: 649112063908df8498a3b2d3caaaa747, type: 3}
    - time: 0.28333333
      value: {fileID: 1977852969, guid: 649112063908df8498a3b2d3caaaa747, type: 3}
    - time: 0.36666667
      value: {fileID: -2026760009, guid: 649112063908df8498a3b2d3caaaa747, type: 3}
    - time: 0.45
      value: {fileID: 729203785, guid: 649112063908df8498a3b2d3caaaa747, type: 3}
    - time: 0.53333336
      value: {fileID: -345319197, guid: 649112063908df8498a3b2d3caaaa747, type: 3}
    - time: 0.6333333
      value: {fileID: -71661690, guid: 649112063908df8498a3b2d3caaaa747, type: 3}
    - time: 0.71666664
      value: {fileID: -94997246, guid: 649112063908df8498a3b2d3caaaa747, type: 3}
    - time: 0.8
      value: {fileID: 373576192, guid: 649112063908df8498a3b2d3caaaa747, type: 3}
    - time: 0.8833333
      value: {fileID: 806720707, guid: 649112063908df8498a3b2d3caaaa747, type: 3}
    - time: 0.96666664
      value: {fileID: 881064697, guid: 649112063908df8498a3b2d3caaaa747, type: 3}
    - time: 1.0666667
      value: {fileID: -389742370, guid: 649112063908df8498a3b2d3caaaa747, type: 3}
    - time: 1.1666666
      value: {fileID: 930738479, guid: 649112063908df8498a3b2d3caaaa747, type: 3}
    - time: 1.25
      value: {fileID: 930738479, guid: 649112063908df8498a3b2d3caaaa747, type: 3}
    attribute: m_Sprite
    path: 
    classID: 212
    script: {fileID: 0}
  m_SampleRate: 60
  m_WrapMode: 0
  m_Bounds:
    m_Center: {x: 0, y: 0, z: 0}
    m_Extent: {x: 0, y: 0, z: 0}
  m_ClipBindingConstant:
    genericBindings:
    - serializedVersion: 2
      path: 0
      attribute: 0
      script: {fileID: 0}
      typeID: 212
      customType: 23
      isPPtrCurve: 1
    pptrCurveMapping:
    - {fileID: -1627316853, guid: 649112063908df8498a3b2d3caaaa747, type: 3}
    - {fileID: 2019604186, guid: 649112063908df8498a3b2d3caaaa747, type: 3}
    - {fileID: -1717563090, guid: 649112063908df8498a3b2d3caaaa747, type: 3}
    - {fileID: 1977852969, guid: 649112063908df8498a3b2d3caaaa747, type: 3}
    - {fileID: -2026760009, guid: 649112063908df8498a3b2d3caaaa747, type: 3}
    - {fileID: 729203785, guid: 649112063908df8498a3b2d3caaaa747, type: 3}
    - {fileID: -345319197, guid: 649112063908df8498a3b2d3caaaa747, type: 3}
    - {fileID: -71661690, guid: 649112063908df8498a3b2d3caaaa747, type: 3}
    - {fileID: -94997246, guid: 649112063908df8498a3b2d3caaaa747, type: 3}
    - {fileID: 373576192, guid: 649112063908df8498a3b2d3caaaa747, type: 3}
    - {fileID: 806720707, guid: 649112063908df8498a3b2d3caaaa747, type: 3}
    - {fileID: 881064697, guid: 649112063908df8498a3b2d3caaaa747, type: 3}
    - {fileID: -389742370, guid: 649112063908df8498a3b2d3caaaa747, type: 3}
    - {fileID: 930738479, guid: 649112063908df8498a3b2d3caaaa747, type: 3}
    - {fileID: 930738479, guid: 649112063908df8498a3b2d3caaaa747, type: 3}
  m_AnimationClipSettings:
    serializedVersion: 2
    m_AdditiveReferencePoseClip: {fileID: 0}
    m_AdditiveReferencePoseTime: 0
    m_StartTime: 0
    m_StopTime: 1.2666667
    m_OrientationOffsetY: 0
    m_Level: 0
    m_CycleOffset: 0
    m_HasAdditiveReferencePose: 0
    m_LoopTime: 1
    m_LoopBlend: 0
    m_LoopBlendOrientation: 0
    m_LoopBlendPositionY: 0
    m_LoopBlendPositionXZ: 0
    m_KeepOriginalOrientation: 0
    m_KeepOriginalPositionY: 1
    m_KeepOriginalPositionXZ: 0
    m_HeightFromFeet: 0
    m_Mirror: 0
  m_EditorCurves: []
  m_EulerEditorCurves: []
  m_HasGenericRootTransform: 0
  m_HasMotionFloatCurves: 0
  m_Events: []
