%YAML 1.1
%TAG !u! tag:unity3d.com,2011:
--- !u!114 &11400000
MonoBehaviour:
  m_ObjectHideFlags: 0
  m_CorrespondingSourceObject: {fileID: 0}
  m_PrefabInstance: {fileID: 0}
  m_PrefabAsset: {fileID: 0}
  m_GameObject: {fileID: 0}
  m_Enabled: 1
  m_EditorHideFlags: 0
  m_Script: {fileID: 11500000, guid: fb599853ca90eb04cb6aecb5e3a2ea83, type: 3}
  m_Name: MUS_SCARE_STORY
  m_EditorClassIdentifier: 
  Id: 257
  Clips:
  - {fileID: 8300000, guid: 3ee1dbe5c93e7c646a450c5e2a90460f, type: 3}
  IsLoop: 1
  IsPitch: 0
  IsAlone: 1
  IsContinues: 0
  IsSequence: 0
  IsLowPriority: 0
  FadeInTime: 0
  FadeOutTime: 0
  SpecificMixerGroup: {fileID: 0}
