%YAML 1.1
%TAG !u! tag:unity3d.com,2011:
--- !u!114 &11400000
MonoBehaviour:
  m_ObjectHideFlags: 0
  m_CorrespondingSourceObject: {fileID: 0}
  m_PrefabInstance: {fileID: 0}
  m_PrefabAsset: {fileID: 0}
  m_GameObject: {fileID: 0}
  m_Enabled: 1
  m_EditorHideFlags: 0
  m_Script: {fileID: 11500000, guid: c9b8a7b6adc10cc4bbfa3402a740dbfb, type: 3}
  m_Name: GreenHat
  m_EditorClassIdentifier: 
  itemType: 10
  weaponType: 0
  EquipmentType: 1
  sprite: {fileID: 578583147, guid: fcbefdeb16cd3cb49b2f91b5642b8161, type: 3}
  itemName: "M\u0169 xanh"
  detail: "M\u1ED9t c\xE1i m\u0169 v\u1EA3i cao m\xE0u xanh"
  ID: c300
  cost: 250
  Attack: 0
  Defense: 2
  Speed: 0
  Stamina: 3
  HealthIncrease: 0
  StaminaIncrease: 0
