%YAML 1.1
%TAG !u! tag:unity3d.com,2011:
--- !u!114 &11400000
MonoBehaviour:
  m_ObjectHideFlags: 0
  m_CorrespondingSourceObject: {fileID: 0}
  m_PrefabInstance: {fileID: 0}
  m_PrefabAsset: {fileID: 0}
  m_GameObject: {fileID: 0}
  m_Enabled: 1
  m_EditorHideFlags: 0
  m_Script: {fileID: 11500000, guid: c9b8a7b6adc10cc4bbfa3402a740dbfb, type: 3}
  m_Name: SunFlowerHat
  m_EditorClassIdentifier: 
  itemType: 10
  weaponType: 0
  EquipmentType: 1
  sprite: {fileID: -1141991929, guid: 36aa464866bf5c04e9c5ab2b6019c487, type: 3}
  itemName: "V\xE0nh hoa"
  detail: "Tr\xF4ng b\u1EA1n li\u1EC7u c\xF3 xinh x\u1EAFn nh\u01B0 m\u1ED9t \u0111\xF3a
    hoa?"
  ID: c304
  cost: 360
  Attack: 0
  Defense: 1
  Speed: 0
  Stamina: 5
  HealthIncrease: 0
  StaminaIncrease: 0
