%YAML 1.1
%TAG !u! tag:unity3d.com,2011:
--- !u!114 &11400000
MonoBehaviour:
  m_ObjectHideFlags: 0
  m_CorrespondingSourceObject: {fileID: 0}
  m_PrefabInstance: {fileID: 0}
  m_PrefabAsset: {fileID: 0}
  m_GameObject: {fileID: 0}
  m_Enabled: 1
  m_EditorHideFlags: 0
  m_Script: {fileID: 11500000, guid: c9b8a7b6adc10cc4bbfa3402a740dbfb, type: 3}
  m_Name: IronArmor
  m_EditorClassIdentifier: 
  itemType: 10
  weaponType: 0
  EquipmentType: 2
  sprite: {fileID: 20761524, guid: 3e4ec333dc282954abec4ec6bcb73b93, type: 3}
  itemName: "\xC1o s\u1EAFt"
  detail: "\u0110\xE2y l\xE0 \xE1o gi\xE1p s\u1EAFt"
  ID: c002
  cost: 490
  Attack: 0
  Defense: 7
  Speed: 0
  Stamina: 0
  HealthIncrease: 0
  StaminaIncrease: 0
