%YAML 1.1
%TAG !u! tag:unity3d.com,2011:
--- !u!114 &11400000
MonoBehaviour:
  m_ObjectHideFlags: 0
  m_CorrespondingSourceObject: {fileID: 0}
  m_PrefabInstance: {fileID: 0}
  m_PrefabAsset: {fileID: 0}
  m_GameObject: {fileID: 0}
  m_Enabled: 1
  m_EditorHideFlags: 0
  m_Script: {fileID: 11500000, guid: a08fdcdcfdb91ce4b9fcc2fc04370470, type: 3}
  m_Name: PoisonBomb
  m_EditorClassIdentifier: 
  SpellType: 2
  Name: "BOM \u0110\u1ED8C"
  Explain: "N\xE9m qu\u1EA3 bom \u0111\u1ED9c v\xE0o m\u1ED9t v\xF9ng ch\u1EC9 \u0111\u1ECBnh,
    khi \u0111\xE1p \u0111\u1EA5t th\xEC... BOOM!"
  Icon: {fileID: 475654140, guid: 5f5ca40f0fa301c499fa8c3f952bf64f, type: 3}
  BaseSpellAtk: 1.5
  BaseStaminaUsed: 1.5
  BaseEffectDuration: 5
  Index: 1
  ItemRequires:
  - {fileID: 11400000, guid: 37cf25ce0727bcc47bbb4bf582ccbfc8, type: 2}
  - {fileID: 11400000, guid: 7928031b2a621e64bbe6ce4ecb549699, type: 2}
  numberRequires: 0500000003000000
