%YAML 1.1
%TAG !u! tag:unity3d.com,2011:
--- !u!114 &11400000
MonoBehaviour:
  m_ObjectHideFlags: 0
  m_CorrespondingSourceObject: {fileID: 0}
  m_PrefabInstance: {fileID: 0}
  m_PrefabAsset: {fileID: 0}
  m_GameObject: {fileID: 0}
  m_Enabled: 1
  m_EditorHideFlags: 0
  m_Script: {fileID: 11500000, guid: a08fdcdcfdb91ce4b9fcc2fc04370470, type: 3}
  m_Name: SpeBuff
  m_EditorClassIdentifier: 
  SpellType: 13
  Name: "T\u0102NG T\u1ED0C"
  Explain: "T\u0103ng SPEED trong m\u1ED9t kho\u1EA3ng th\u1EDDi gian nh\u1EA5t \u0111\u1ECBnh"
  Icon: {fileID: 1643025041, guid: 5f5ca40f0fa301c499fa8c3f952bf64f, type: 3}
  BaseSpellAtk: 0
  BaseStaminaUsed: 2
  BaseEffectDuration: 10
  Index: 12
  ItemRequires:
  - {fileID: 11400000, guid: 7928031b2a621e64bbe6ce4ecb549699, type: 2}
  - {fileID: 11400000, guid: 3d45ffadeeafeae4080388b7291aa404, type: 2}
  numberRequires: 0900000001000000
