%YAML 1.1
%TAG !u! tag:unity3d.com,2011:
--- !u!114 &11400000
MonoBehaviour:
  m_ObjectHideFlags: 0
  m_CorrespondingSourceObject: {fileID: 0}
  m_PrefabInstance: {fileID: 0}
  m_PrefabAsset: {fileID: 0}
  m_GameObject: {fileID: 0}
  m_Enabled: 1
  m_EditorHideFlags: 0
  m_Script: {fileID: 11500000, guid: a08fdcdcfdb91ce4b9fcc2fc04370470, type: 3}
  m_Name: SpikeDart
  m_EditorClassIdentifier: 
  SpellType: 1
  Name: "PH\xD3NG GAI"
  Explain: "Ph\xF3ng nh\u1EEFng c\xE1i gai s\u1EAFc nh\u1ECDn ra m\u1ECDi ph\xEDa!"
  Icon: {fileID: -357139373, guid: 5f5ca40f0fa301c499fa8c3f952bf64f, type: 3}
  BaseSpellAtk: 1.5
  BaseStaminaUsed: 2
  BaseEffectDuration: 0
  Index: 0
  ItemRequires:
  - {fileID: 11400000, guid: 4a1f3f267f1d38c46a557f1416904663, type: 2}
  numberRequires: 07000000
