%YAML 1.1
%TAG !u! tag:unity3d.com,2011:
--- !u!114 &11400000
MonoBehaviour:
  m_ObjectHideFlags: 0
  m_CorrespondingSourceObject: {fileID: 0}
  m_PrefabInstance: {fileID: 0}
  m_PrefabAsset: {fileID: 0}
  m_GameObject: {fileID: 0}
  m_Enabled: 1
  m_EditorHideFlags: 0
  m_Script: {fileID: 11500000, guid: a08fdcdcfdb91ce4b9fcc2fc04370470, type: 3}
  m_Name: Teleport
  m_EditorClassIdentifier: 
  SpellType: 10
  Name: "T\u1ED0C BI\u1EBEN"
  Explain: "\u0110\xE2y l\xE0 d\u1ECBch chuy\u1EC3n t\u1EE9c th\u1EDDi nh\u01B0ng
    T\xF9ng k\xEAu \"t\u1ED1c bi\u1EBFn\""
  Icon: {fileID: -807990716, guid: 5f5ca40f0fa301c499fa8c3f952bf64f, type: 3}
  BaseSpellAtk: 0
  BaseStaminaUsed: 2
  BaseEffectDuration: 0
  Index: 9
  ItemRequires:
  - {fileID: 11400000, guid: 7928031b2a621e64bbe6ce4ecb549699, type: 2}
  - {fileID: 11400000, guid: 3d45ffadeeafeae4080388b7291aa404, type: 2}
  numberRequires: 0900000001000000
