%YAML 1.1
%TAG !u! tag:unity3d.com,2011:
--- !u!74 &7400000
AnimationClip:
  m_ObjectHideFlags: 0
  m_CorrespondingSourceObject: {fileID: 0}
  m_PrefabInstance: {fileID: 0}
  m_PrefabAsset: {fileID: 0}
  m_Name: speBuff
  serializedVersion: 6
  m_Legacy: 0
  m_Compressed: 0
  m_UseHighQualityCurve: 1
  m_RotationCurves: []
  m_CompressedRotationCurves: []
  m_EulerCurves: []
  m_PositionCurves: []
  m_ScaleCurves: []
  m_FloatCurves: []
  m_PPtrCurves:
  - curve:
    - time: 0
      value: {fileID: -22662592, guid: 1fd9dab5c5e231d438d0fef5ee64ed76, type: 3}
    - time: 0.06666667
      value: {fileID: 1766043499, guid: 1fd9dab5c5e231d438d0fef5ee64ed76, type: 3}
    - time: 0.11666667
      value: {fileID: -587803096, guid: 1fd9dab5c5e231d438d0fef5ee64ed76, type: 3}
    - time: 0.18333334
      value: {fileID: 329827505, guid: 1fd9dab5c5e231d438d0fef5ee64ed76, type: 3}
    - time: 0.23333333
      value: {fileID: -1225914648, guid: 1fd9dab5c5e231d438d0fef5ee64ed76, type: 3}
    - time: 0.3
      value: {fileID: -129701887, guid: 1fd9dab5c5e231d438d0fef5ee64ed76, type: 3}
    - time: 0.35
      value: {fileID: -1800910415, guid: 1fd9dab5c5e231d438d0fef5ee64ed76, type: 3}
    - time: 0.41666666
      value: {fileID: -813064450, guid: 1fd9dab5c5e231d438d0fef5ee64ed76, type: 3}
    - time: 0.46666667
      value: {fileID: 1260184758, guid: 1fd9dab5c5e231d438d0fef5ee64ed76, type: 3}
    - time: 0.53333336
      value: {fileID: 1633821819, guid: 1fd9dab5c5e231d438d0fef5ee64ed76, type: 3}
    - time: 0.5833333
      value: {fileID: 1261274181, guid: 1fd9dab5c5e231d438d0fef5ee64ed76, type: 3}
    - time: 0.65
      value: {fileID: 1800558112, guid: 1fd9dab5c5e231d438d0fef5ee64ed76, type: 3}
    - time: 0.7
      value: {fileID: -93726658, guid: 1fd9dab5c5e231d438d0fef5ee64ed76, type: 3}
    - time: 0.76666665
      value: {fileID: 587511655, guid: 1fd9dab5c5e231d438d0fef5ee64ed76, type: 3}
    - time: 0.81666666
      value: {fileID: -369324883, guid: 1fd9dab5c5e231d438d0fef5ee64ed76, type: 3}
    - time: 0.8833333
      value: {fileID: 1152723247, guid: 1fd9dab5c5e231d438d0fef5ee64ed76, type: 3}
    - time: 0.93333334
      value: {fileID: 614822164, guid: 1fd9dab5c5e231d438d0fef5ee64ed76, type: 3}
    - time: 1
      value: {fileID: -1544199602, guid: 1fd9dab5c5e231d438d0fef5ee64ed76, type: 3}
    attribute: m_Sprite
    path: 
    classID: 212
    script: {fileID: 0}
  m_SampleRate: 60
  m_WrapMode: 0
  m_Bounds:
    m_Center: {x: 0, y: 0, z: 0}
    m_Extent: {x: 0, y: 0, z: 0}
  m_ClipBindingConstant:
    genericBindings:
    - serializedVersion: 2
      path: 0
      attribute: 0
      script: {fileID: 0}
      typeID: 212
      customType: 23
      isPPtrCurve: 1
    pptrCurveMapping:
    - {fileID: -22662592, guid: 1fd9dab5c5e231d438d0fef5ee64ed76, type: 3}
    - {fileID: 1766043499, guid: 1fd9dab5c5e231d438d0fef5ee64ed76, type: 3}
    - {fileID: -587803096, guid: 1fd9dab5c5e231d438d0fef5ee64ed76, type: 3}
    - {fileID: 329827505, guid: 1fd9dab5c5e231d438d0fef5ee64ed76, type: 3}
    - {fileID: -1225914648, guid: 1fd9dab5c5e231d438d0fef5ee64ed76, type: 3}
    - {fileID: -129701887, guid: 1fd9dab5c5e231d438d0fef5ee64ed76, type: 3}
    - {fileID: -1800910415, guid: 1fd9dab5c5e231d438d0fef5ee64ed76, type: 3}
    - {fileID: -813064450, guid: 1fd9dab5c5e231d438d0fef5ee64ed76, type: 3}
    - {fileID: 1260184758, guid: 1fd9dab5c5e231d438d0fef5ee64ed76, type: 3}
    - {fileID: 1633821819, guid: 1fd9dab5c5e231d438d0fef5ee64ed76, type: 3}
    - {fileID: 1261274181, guid: 1fd9dab5c5e231d438d0fef5ee64ed76, type: 3}
    - {fileID: 1800558112, guid: 1fd9dab5c5e231d438d0fef5ee64ed76, type: 3}
    - {fileID: -93726658, guid: 1fd9dab5c5e231d438d0fef5ee64ed76, type: 3}
    - {fileID: 587511655, guid: 1fd9dab5c5e231d438d0fef5ee64ed76, type: 3}
    - {fileID: -369324883, guid: 1fd9dab5c5e231d438d0fef5ee64ed76, type: 3}
    - {fileID: 1152723247, guid: 1fd9dab5c5e231d438d0fef5ee64ed76, type: 3}
    - {fileID: 614822164, guid: 1fd9dab5c5e231d438d0fef5ee64ed76, type: 3}
    - {fileID: -1544199602, guid: 1fd9dab5c5e231d438d0fef5ee64ed76, type: 3}
  m_AnimationClipSettings:
    serializedVersion: 2
    m_AdditiveReferencePoseClip: {fileID: 0}
    m_AdditiveReferencePoseTime: 0
    m_StartTime: 0
    m_StopTime: 1.0166667
    m_OrientationOffsetY: 0
    m_Level: 0
    m_CycleOffset: 0
    m_HasAdditiveReferencePose: 0
    m_LoopTime: 1
    m_LoopBlend: 0
    m_LoopBlendOrientation: 0
    m_LoopBlendPositionY: 0
    m_LoopBlendPositionXZ: 0
    m_KeepOriginalOrientation: 0
    m_KeepOriginalPositionY: 1
    m_KeepOriginalPositionXZ: 0
    m_HeightFromFeet: 0
    m_Mirror: 0
  m_EditorCurves: []
  m_EulerEditorCurves: []
  m_HasGenericRootTransform: 0
  m_HasMotionFloatCurves: 0
  m_Events: []
