%YAML 1.1
%TAG !u! tag:unity3d.com,2011:
--- !u!114 &11400000
MonoBehaviour:
  m_ObjectHideFlags: 0
  m_CorrespondingSourceObject: {fileID: 0}
  m_PrefabInstance: {fileID: 0}
  m_PrefabAsset: {fileID: 0}
  m_GameObject: {fileID: 0}
  m_Enabled: 1
  m_EditorHideFlags: 0
  m_Script: {fileID: 11500000, guid: c9b8a7b6adc10cc4bbfa3402a740dbfb, type: 3}
  m_Name: InternalIce
  m_EditorClassIdentifier: 
  itemType: 0
  weaponType: 0
  EquipmentType: 0
  sprite: {fileID: 1355789578, guid: a2f57cb3bd049bf4e9837296eeb66f0a, type: 3}
  itemName: "B\u0103ng v\u0129nh c\u1EEDu"
  detail: "T\u1EA3ng b\u0103ng nh\u1ECF l\u1EA1nh ng\u1EAFt kh\xF4ng bao gi\u1EDD
    b\u1ECB tan ch\u1EA3y"
  ID: in007
  cost: 40
  Attack: 0
  Defense: 0
  Speed: 0
  Stamina: 0
  HealthIncrease: 0
  StaminaIncrease: 0
