%YAML 1.1
%TAG !u! tag:unity3d.com,2011:
--- !u!114 &11400000
MonoBehaviour:
  m_ObjectHideFlags: 0
  m_CorrespondingSourceObject: {fileID: 0}
  m_PrefabInstance: {fileID: 0}
  m_PrefabAsset: {fileID: 0}
  m_GameObject: {fileID: 0}
  m_Enabled: 1
  m_EditorHideFlags: 0
  m_Script: {fileID: 11500000, guid: c9b8a7b6adc10cc4bbfa3402a740dbfb, type: 3}
  m_Name: Metal
  m_EditorClassIdentifier: 
  itemType: 0
  weaponType: 0
  EquipmentType: 0
  sprite: {fileID: -1062201775, guid: a2f57cb3bd049bf4e9837296eeb66f0a, type: 3}
  itemName: "Kim lo\u1EA1i"
  detail: "M\u1ED9t lo\u1EA1i v\u1EADt ch\u1EA5t c\u1EE9ng, c\xF3 m\xE0u \xE1nh kim,
    d\xF9ng \u0111\u1EC3 l\xE0m nhi\u1EC1u v\u1EADt d\u1EE5ng ch\u1EAFc ch\u1EAFn"
  ID: in006
  cost: 60
  Attack: 0
  Defense: 0
  Speed: 0
  Stamina: 0
  HealthIncrease: 0
  StaminaIncrease: 0
