%YAML 1.1
%TAG !u! tag:unity3d.com,2011:
--- !u!114 &11400000
MonoBehaviour:
  m_ObjectHideFlags: 0
  m_CorrespondingSourceObject: {fileID: 0}
  m_PrefabInstance: {fileID: 0}
  m_PrefabAsset: {fileID: 0}
  m_GameObject: {fileID: 0}
  m_Enabled: 1
  m_EditorHideFlags: 0
  m_Script: {fileID: 11500000, guid: c9b8a7b6adc10cc4bbfa3402a740dbfb, type: 3}
  m_Name: Silk
  m_EditorClassIdentifier: 
  itemType: 0
  weaponType: 0
  EquipmentType: 0
  sprite: {fileID: 446149537, guid: a2f57cb3bd049bf4e9837296eeb66f0a, type: 3}
  itemName: "T\u01A1"
  detail: "Lo\u1EA1i t\u01A1 m\u1EC1m nh\u1EB9 nh\u01B0ng r\u1EA5t ch\u1EAFc ch\u1EAFn,
    kh\xF3 m\xE0 l\xE0m \u0111\u1EE9t n\xF3 \u0111\u01B0\u1EE3c"
  ID: in017
  cost: 50
  Attack: 0
  Defense: 0
  Speed: 0
  Stamina: 0
  HealthIncrease: 0
  StaminaIncrease: 0
