%YAML 1.1
%TAG !u! tag:unity3d.com,2011:
--- !u!114 &11400000
MonoBehaviour:
  m_ObjectHideFlags: 0
  m_CorrespondingSourceObject: {fileID: 0}
  m_PrefabInstance: {fileID: 0}
  m_PrefabAsset: {fileID: 0}
  m_GameObject: {fileID: 0}
  m_Enabled: 1
  m_EditorHideFlags: 0
  m_Script: {fileID: 11500000, guid: c9b8a7b6adc10cc4bbfa3402a740dbfb, type: 3}
  m_Name: Soil
  m_EditorClassIdentifier: 
  itemType: 0
  weaponType: 0
  EquipmentType: 0
  sprite: {fileID: -748038912, guid: a2f57cb3bd049bf4e9837296eeb66f0a, type: 3}
  itemName: "\u0110\u1EA5t \u1EA9m"
  detail: "\u0110\u1EA5t \u0111\u01B0\u1EE3c t\xEDch tr\u1EEF n\u01B0\u1EDBc t\u1EA1o
    n\xEAn \u0111\u1EA5t \u1EA9m, t\u1ED1t cho c\xE2y tr\u1ED3ng"
  ID: in008
  cost: 10
  Attack: 0
  Defense: 0
  Speed: 0
  Stamina: 0
  HealthIncrease: 0
  StaminaIncrease: 0
